%YAML 1.1
%TAG !u! tag:unity3d.com,2011:
--- !u!74 &7400000
AnimationClip:
  m_ObjectHideFlags: 0
  m_CorrespondingSourceObject: {fileID: 0}
  m_PrefabInstance: {fileID: 0}
  m_PrefabAsset: {fileID: 0}
  m_Name: "Pin\u0303a"
  serializedVersion: 6
  m_Legacy: 0
  m_Compressed: 0
  m_UseHighQualityCurve: 1
  m_RotationCurves: []
  m_CompressedRotationCurves: []
  m_EulerCurves: []
  m_PositionCurves: []
  m_ScaleCurves: []
  m_FloatCurves: []
  m_PPtrCurves:
  - curve:
    - time: 0
      value: {fileID: 837517196756356485, guid: 131e485692e27e84c86170dad18cda85,
        type: 3}
    - time: 0.083333336
      value: {fileID: 5853685913921513280, guid: 131e485692e27e84c86170dad18cda85,
        type: 3}
    - time: 0.16666667
      value: {fileID: -9203941944909886899, guid: 131e485692e27e84c86170dad18cda85,
        type: 3}
    - time: 0.25
      value: {fileID: 9123128501793527533, guid: 131e485692e27e84c86170dad18cda85,
        type: 3}
    - time: 0.33333334
      value: {fileID: -2070215502844823636, guid: 131e485692e27e84c86170dad18cda85,
        type: 3}
    - time: 0.41666666
      value: {fileID: 9146190884484061983, guid: 131e485692e27e84c86170dad18cda85,
        type: 3}
    - time: 0.5
      value: {fileID: -3927142802335889705, guid: 131e485692e27e84c86170dad18cda85,
        type: 3}
    - time: 0.5833333
      value: {fileID: -6132574039448135999, guid: 131e485692e27e84c86170dad18cda85,
        type: 3}
    - time: 0.6666667
      value: {fileID: 7735609222263424191, guid: 131e485692e27e84c86170dad18cda85,
        type: 3}
    - time: 0.75
      value: {fileID: -5292735610519781750, guid: 131e485692e27e84c86170dad18cda85,
        type: 3}
    - time: 0.8333333
      value: {fileID: 3138868963988263443, guid: 131e485692e27e84c86170dad18cda85,
        type: 3}
    - time: 0.9166667
      value: {fileID: -2586699502257965134, guid: 131e485692e27e84c86170dad18cda85,
        type: 3}
    - time: 1
      value: {fileID: -308233894513228991, guid: 131e485692e27e84c86170dad18cda85,
        type: 3}
    - time: 1.0833334
      value: {fileID: -3572505572473984507, guid: 131e485692e27e84c86170dad18cda85,
        type: 3}
    - time: 1.1666666
      value: {fileID: 2685796208498767467, guid: 131e485692e27e84c86170dad18cda85,
        type: 3}
    - time: 1.25
      value: {fileID: -5727045457883989075, guid: 131e485692e27e84c86170dad18cda85,
        type: 3}
    - time: 1.3333334
      value: {fileID: 2286579587875889941, guid: 131e485692e27e84c86170dad18cda85,
        type: 3}
    attribute: m_Sprite
    path: 
    classID: 212
    script: {fileID: 0}
  m_SampleRate: 12
  m_WrapMode: 0
  m_Bounds:
    m_Center: {x: 0, y: 0, z: 0}
    m_Extent: {x: 0, y: 0, z: 0}
  m_ClipBindingConstant:
    genericBindings:
    - serializedVersion: 2
      path: 0
      attribute: 0
      script: {fileID: 0}
      typeID: 212
      customType: 23
      isPPtrCurve: 1
    pptrCurveMapping:
    - {fileID: 837517196756356485, guid: 131e485692e27e84c86170dad18cda85, type: 3}
    - {fileID: 5853685913921513280, guid: 131e485692e27e84c86170dad18cda85, type: 3}
    - {fileID: -9203941944909886899, guid: 131e485692e27e84c86170dad18cda85, type: 3}
    - {fileID: 9123128501793527533, guid: 131e485692e27e84c86170dad18cda85, type: 3}
    - {fileID: -2070215502844823636, guid: 131e485692e27e84c86170dad18cda85, type: 3}
    - {fileID: 9146190884484061983, guid: 131e485692e27e84c86170dad18cda85, type: 3}
    - {fileID: -3927142802335889705, guid: 131e485692e27e84c86170dad18cda85, type: 3}
    - {fileID: -6132574039448135999, guid: 131e485692e27e84c86170dad18cda85, type: 3}
    - {fileID: 7735609222263424191, guid: 131e485692e27e84c86170dad18cda85, type: 3}
    - {fileID: -5292735610519781750, guid: 131e485692e27e84c86170dad18cda85, type: 3}
    - {fileID: 3138868963988263443, guid: 131e485692e27e84c86170dad18cda85, type: 3}
    - {fileID: -2586699502257965134, guid: 131e485692e27e84c86170dad18cda85, type: 3}
    - {fileID: -308233894513228991, guid: 131e485692e27e84c86170dad18cda85, type: 3}
    - {fileID: -3572505572473984507, guid: 131e485692e27e84c86170dad18cda85, type: 3}
    - {fileID: 2685796208498767467, guid: 131e485692e27e84c86170dad18cda85, type: 3}
    - {fileID: -5727045457883989075, guid: 131e485692e27e84c86170dad18cda85, type: 3}
    - {fileID: 2286579587875889941, guid: 131e485692e27e84c86170dad18cda85, type: 3}
  m_AnimationClipSettings:
    serializedVersion: 2
    m_AdditiveReferencePoseClip: {fileID: 0}
    m_AdditiveReferencePoseTime: 0
    m_StartTime: 0
    m_StopTime: 1.4166667
    m_OrientationOffsetY: 0
    m_Level: 0
    m_CycleOffset: 0
    m_HasAdditiveReferencePose: 0
    m_LoopTime: 1
    m_LoopBlend: 0
    m_LoopBlendOrientation: 0
    m_LoopBlendPositionY: 0
    m_LoopBlendPositionXZ: 0
    m_KeepOriginalOrientation: 0
    m_KeepOriginalPositionY: 1
    m_KeepOriginalPositionXZ: 0
    m_HeightFromFeet: 0
    m_Mirror: 0
  m_EditorCurves: []
  m_EulerEditorCurves: []
  m_HasGenericRootTransform: 0
  m_HasMotionFloatCurves: 0
  m_Events: []
